This is BibTeX, Version 0.99dThe top-level auxiliary file: Annotated sketch.aux
I couldn't open style file te.bst
---line 19 of file Annotated sketch.aux
 : \bibstyle{te
 :             }
I'm skipping whatever remains of this command
I found no \citation commands---while reading file Annotated sketch.aux
I found no \bibdata command---while reading file Annotated sketch.aux
I found no style file---while reading file Annotated sketch.aux
(There were 4 error messages)
