\relax 
\citation{article}
\citation{database}
\citation{database}
\citation{VGG}
\citation{Alex}
\citation{Mohanty2016}
\@writefile{toc}{\contentsline {section}{\numberline {1}Summary}{1}}
\@writefile{toc}{\contentsline {section}{\numberline {2}Database}{1}}
\@writefile{toc}{\contentsline {section}{\numberline {3}Models}{1}}
\@writefile{toc}{\contentsline {section}{\numberline {4}Observation}{1}}
\bibcite{article}{1}
\bibcite{database}{2}
\bibcite{VGG}{3}
\bibcite{Alex}{4}
\bibcite{Mohanty2016}{5}
